…
**Primarily I split the data into training and testing data sets with a 75-25 split. I created 2 different models all using the same recipe to test which approach works the best. They included linear regression, k-nearest neighbors and random forest. The model with the lowest RMSE appears to be the Random Forest model showing it is the best approach.**

### Discussion


``` r
dat_test |>
group_by(state) |>
summarize(avg = mean(differences), n = n()) |>
arrange(abs(avg))
```

```
## # A tibble: 44 × 3
##    state           avg     n
##    <chr>         <dbl> <int>
##  1 Alabama     -0.0187     3
##  2 Iowa         0.0271     6
##  3 Kentucky    -0.0924     6
##  4 Oregon      -0.112      6
##  5 Montana     -0.127      3
##  6 Missouri    -0.164      5
##  7 Maryland     0.241      3
##  8 Wisconsin    0.246      2
##  9 Mississippi  0.250      3
## 10 Ohio        -0.345     15
## # ℹ 34 more rows
```
…
